Name, Email, Phone
Kenneth Ybanez, kennethybanez.yns@gmail.com,  09090909090
Jericho Bermudez, jerichobermudez.yns@gmail.com,  09284047726
Ekoy Pogi, jerichobermudez.yns@gmail.com,  09284047726
sample user, sampleuser@gmail.com,  09876544321
