Jericho Bermudez, jerichobermudez.yns@gmail.com,  09284047726, Screenshot (1).png
Kenneth Ybanez, kennethybanez.yns@gmail.com,  09090909090, profile-default.png
asd asd, jerichobermudez.yns@gmail.com,  09090909090, Screenshot (2).png
Jericho Bermudez, jerichobermudez.yns@gmail.com,  09284047726, Screenshot (1).png
Kenneth Ybanez, kennethybanez.yns@gmail.com,  09090909090, profile-default.png